%YAML 1.1
%TAG !u! tag:unity3d.com,2011:
--- !u!1045 &1
EditorBuildSettings:
  m_ObjectHideFlags: 0
  serializedVersion: 2
  m_Scenes:
  - enabled: 1
    path: Assets/ShootingContest/Scene/Demo_SceneWithPrefab.unity
    guid: 28c57930e5cf96b4bba761f6c8e51831
  - enabled: 1
    path: Assets/VRTK/Examples/[001 - Interactions] ControllerEvents.unity
    guid: 7ef04a272395bf04f8fdc6ec410f464e
  - enabled: 1
    path: Assets/VRTK/Examples/[002 - Pointers] StraightPointer.unity
    guid: a21359c56ac86e84e8c97daea769afb1
  - enabled: 1
    path: Assets/VRTK/Examples/[003 - Pointers] BezierPointer.unity
    guid: b096ca0211dc5e741b5975310caead66
  - enabled: 1
    path: Assets/VRTK/Examples/[004 - Locomotion] Teleporting.unity
    guid: 6e8d0241c1297f3498e571ad36aa813f
  - enabled: 1
    path: Assets/VRTK/Examples/[005 - Interactions] InteractableObjects.unity
    guid: bece393a6b2458142935d8d7562c52d7
  - enabled: 1
    path: Assets/VRTK/Examples/[006 - Locomotion] MovementTypes.unity
    guid: 0d6a417054df32d4a90351ce5c3fc638
  - enabled: 1
    path: Assets/VRTK/Examples/[007 - Interactions] InteractionHelpers.unity
    guid: ea2236e506afcac41a7b82e176d839d1
